Row Labels,Average of Science..,Max of Science..,Min of Science..,
Every day,36.35791519,85.45,0,
Never,35.63858896,76.36,7.27,
Once a month,36.78612676,74.55,16.36,
Once a week,36.46711238,80,1.82,
(blank),27.43086957,63.64,10.91,
Grand Total,36.3132722,85.45,0,
,,,,
,,,,
Row Labels,Average of Science..,Max of Science..,Min of Science..,
Degree & above,43.5,76.4,16.4,
Illiterate,34.5,85.5,5.5,
Primary,36.6,85.5,0.0,
Secondary,36.6,81.8,0.0,
Sr secondary,38.9,76.4,5.5,
(blank),33.0,81.8,0.0,
Grand Total,36.3132722,85.45,0,
,,,,
,,,,
Row Labels,Average of Reading..,,,
Once a week,59.6,,,
Every day,54.8,,,
Once a month,52.0,,,
Never,49.1,,,
(blank),44.3,,,
Grand Total,55.4,,,
,,,,
,,,,
Row Labels,Average of Maths..,,,
Agree,32.8,,,
Disagree,30.8,,,
Neither,29.4,,,
(blank),23.3,,,
Grand Total,31.6,,,
