,funded_amnt_inv,installment,annual_inc,dti,mths_since_last_delinq,mths_since_last_record,out_prncp,out_prncp_inv,total_pymnt,total_pymnt_inv,total_rec_prncp,total_rec_int,total_rec_late_fee,recoveries,collection_recovery_fee,last_pymnt_amnt,int_rate_num,emp_length_num,revol_util_num
count,32950.0,32950.0,32950.0,32950.0,11530.0,2162.0,32950.0,32950.0,32950.0,32950.0,32950.0,32950.0,32950.0,32950.0,32950.0,32950.0,32950.0,32145.0,32916.0
mean,10112.837414455877,320.1252318664615,69862.50332807282,13.148421244309597,35.83148308759757,67.81221091581868,0.0,0.0,12725.781962912202,12108.624511077433,10618.514176328035,2106.3984382397566,0.8694519935973596,0.0,0.0,3159.554032776914,11.60976115326331,5.140115103437549,47.53180125167091
std,6901.840873687474,207.0811097385926,66562.24652130062,6.680041262319686,21.90560333987715,44.586867818619005,0.0,0.0,8850.882238199236,8753.945803973775,6956.042361801594,2360.4368633976947,5.736693412949146,0.0,0.0,4736.3458863868345,3.5999644567641442,3.877185800988119,28.276742875875126
min,0.0,15.69,4000.0,0.0,0.0,0.0,0.0,0.0,526.3322406999999,0.0,500.0,6.22,0.0,0.0,0.0,0.0,5.42,0.0,0.0
25%,5000.0,165.28250000000003,41132.75,7.98,18.0,0.0,0.0,0.0,6139.83126575,5729.99,5050.0,659.5375,0.0,0.0,0.0,254.8625,8.49,2.0,23.9
50%,8500.0,275.65,60000.0,13.2,34.0,89.0,0.0,0.0,10687.157220000001,9993.369999999999,9200.0,1301.5349999999999,0.0,0.0,0.0,863.685,11.49,4.0,47.6
75%,13950.0,420.735,84000.0,18.39,52.0,104.0,0.0,0.0,17025.7854775,16285.16,14500.0,2649.36,0.0,0.0,0.0,4248.58,13.99,9.0,70.8
max,35000.0,1295.21,6000000.0,29.99,120.0,120.0,0.0,0.0,58563.67993,58563.68,35000.02,23563.68,165.69,0.0,0.0,36115.2,24.11,11.0,99.9
